{
  "name" : "semver",
  "version" : "0.1.0",
  "license" : "LGPLv3.0",
  "author" : "Baptiste Gelez <gelezbaptiste@openmailbox.org>",
  "repository" : "https://framagit.org/Bat/semver.git",
  "files": [
    "src/*.vala"
  ],
  "library": true,
  "scripts": {
    "install": [
      "install -m 666 build/semver-0.1.0.vapi /usr/share/vala/vapi",
      "install -m 666 build/semver-0.1.0.deps /usr/share/vala/vapi",
      "install -m 666 build/semver-0.1.0.h /usr/include/semver/",
      "install -m 644 build/semver-0.1.0.pc /usr/lib64/pkgconfig/",
      "install -m 777 build/semver-0.1.0.so /usr/lib64/"
    ]
  }
}
